plotly for R
…
            plotly for R

1.1 A case study of housing sales in Texas

The plotly package depends on ggplot2 which bundles a data set on monthly housing sales in Texan cities acquired from the TAMU real estate center. After the loading the package, the data is “lazily loaded” into your session, so you may reference it by name:

library(plotly)
txhousing
#> # A tibble: 8,602 × 9
#>      city  year month sales   volume median listings inventory  date
#>     <chr> <int> <int> <dbl>    <dbl>  <dbl>    <dbl>     <dbl> <dbl>
#> 1 Abilene  2000     1    72  5380000  71400      701       6.3  2000
#> 2 Abilene  2000     2    98  6505000  58700      746       6.6  2000
#> 3 Abilene  2000     3   130  9285000  58100      784       6.8  2000
#> 4 Abilene  2000     4    98  9730000  68600      785       6.9  2000
#> 5 Abilene  2000     5   141 10590000  67300      794       6.8  2000
#> 6 Abilene  2000     6   156 13910000  66900      780       6.6  2000
#> # ... with 8,596 more rows
…
1.1.2 The plot_ly() interface

1.1.2.1 The Layered Grammar of Graphics

The cognitive framework underlying the plot_ly() interface draw inspiration from the layered grammar of graphics (Wickham 2010), but in contrast to ggplotly(), it provides a more flexible and direct interface to plotly.js. It is more direct in the sense that it doesn’t call ggplot2’s sometimes expensive plot building routines, and it is more flexible in the sense that data frames are not required, which is useful for visualizing matrices, as shown in Get Started. Although data frames are not required, it is recommended to use them whenever possible, especially when constructing a plot with multiple layers or groups.

When a data frame is associated with a plotly object, it allows us to manipulate the data underlying that object in the same way we would directly manipulate the data. Currently, plot_ly() borrows semantics from and provides special plotly methods for generic functions in the dplyr and tidyr packages (Wickham and Francois 2016); (Wickham 2016). Most importantly, plot_ly() recognizes and preserves groupings created with dplyr’s group_by() function.

library(dplyr)
tx <- group_by(txhousing, city)
# initiate a plotly object with date on x and median on y
p <- plot_ly(tx, x = ~date, y = ~median)
# plotly_data() returns data associated with a plotly object, note the group attribute!
plotly_data(p)
#> Source: local data frame [8,602 x 9]
#> Groups: city [46]
#> 
#>      city  year month sales   volume median listings inventory  date
#>     <chr> <int> <int> <dbl>    <dbl>  <dbl>    <dbl>     <dbl> <dbl>
#> 1 Abilene  2000     1    72  5380000  71400      701       6.3  2000
#> 2 Abilene  2000     2    98  6505000  58700      746       6.6  2000
#> 3 Abilene  2000     3   130  9285000  58100      784       6.8  2000
#> 4 Abilene  2000     4    98  9730000  68600      785       6.9  2000
#> 5 Abilene  2000     5   141 10590000  67300      794       6.8  2000
#> 6 Abilene  2000     6   156 13910000  66900      780       6.6  2000
#> # ... with 8,596 more rows
…
