plotly for R
…
            plotly for R

1.2 Extending ggplotly()

Since the ggplotly() function returns a plotly object, we can manipulate that object plot_ly().

p <- ggplot(mtcars, aes(x = wt, y = mpg)) +
  geom_point() + geom_smooth()

p %>%
  ggplotly(layerData = 2, originalData = FALSE) %>%
  plotly_data()

## # A tibble: 80 × 13
##           x        y     ymin     ymax        se PANEL group  colour
##       <dbl>    <dbl>    <dbl>    <dbl>     <dbl> <int> <int>   <chr>
## 1  1.513000 32.08897 28.14821 36.02974 1.9183213     1    -1 #3366FF
## 2  1.562506 31.68786 28.15439 35.22134 1.7200573     1    -1 #3366FF
## 3  1.612013 31.28163 28.10997 34.45329 1.5439313     1    -1 #3366FF
## 4  1.661519 30.87037 28.01249 33.72825 1.3911843     1    -1 #3366FF
## 5  1.711025 30.45419 27.85973 33.04864 1.2629527     1    -1 #3366FF
## 6  1.760532 30.03318 27.65029 32.41607 1.1599650     1    -1 #3366FF
## 7  1.810038 29.60745 27.38445 31.83046 1.0821338     1    -1 #3366FF
## 8  1.859544 29.17711 27.06496 31.28925 1.0281676     1    -1 #3366FF
## 9  1.909051 28.74224 26.69739 30.78709 0.9954106     1    -1 #3366FF
## 10 1.958557 28.30017 26.28752 30.31283 0.9797387     1    -1 #3366FF
## # ... with 70 more rows, and 5 more variables: fill <chr>, size <dbl>,
## #   linetype <dbl>, weight <dbl>, alpha <dbl>
…
