37 Modifying ggplotly() results | Interactive web-based data visualization with R, plotly, and shiny
…
FIGURE 37.5: Using the style() function to modify hoverinfo attribute values of a plotly object created via ggplotly() (by default, ggplotly() displays hoverinfo for all traces). In this case, the hoverinfo for a fitted line and error bounds are hidden.

37.3 Leveraging statistical output

Since ggplotly() returns a plotly object, and plotly objects can have data attached to them, it attaches data from ggplot2 layer(s) (either before or after summary statistics have been applied). Furthermore, since each ggplot layer owns a data frame, it is useful to have some way to specify the particular layer of data of interest, which is done via the layerData argument in ggplotly(). Also, when a particular layer applies a summary statistic (e.g., geom_bin()), or applies a statistical model (e.g., geom_smooth()) to the data, it might be useful to access the output of that transformation, which is the point of the originalData argument in ggplotly().

p <- ggplot(mtcars, aes(x = wt, y = mpg)) +
   geom_point() + geom_smooth()
p %>%
  ggplotly(layerData = 2, originalData = FALSE) %>%
  plotly_data()
#> # A tibble: 80 x 13
#>   PANEL     x     y  ymin  ymax    se group colour fill   size linetype
#>   <fct> <dbl> <dbl> <dbl> <dbl> <dbl> <int> <chr>  <chr> <dbl>    <dbl>
#> 1 1      1.51  32.1  28.1  36.0  1.92    -1 #3366… grey…     1        1
#> 2 1      1.56  31.7  28.2  35.2  1.72    -1 #3366… grey…     1        1
#> 3 1      1.61  31.3  28.1  34.5  1.54    -1 #3366… grey…     1        1
#> 4 1      1.66  30.9  28.0  33.7  1.39    -1 #3366… grey…     1        1
#> 5 1      1.71  30.5  27.9  33.0  1.26    -1 #3366… grey…     1        1
#> 6 1      1.76  30.0  27.7  32.4  1.16    -1 #3366… grey…     1        1
#> # … with 74 more rows, and 2 more variables: weight <dbl>, alpha <dbl>
…
